<?xml version="1.0" encoding="utf-8"?>
<!-- Generator: Adobe Illustrator 16.0.0, SVG Export Plug-In . SVG Version: 6.00 Build 0)  -->
<!DOCTYPE svg PUBLIC "-//W3C//DTD SVG 1.1//EN" "http://www.w3.org/Graphics/SVG/1.1/DTD/svg11.dtd">
<svg version="1.1" id="Layer_1" xmlns="http://www.w3.org/2000/svg" xmlns:xlink="http://www.w3.org/1999/xlink" x="0px" y="0px"
	 width="20px" height="10px" viewBox="0 0 20 10" enable-background="new 0 0 20 10" xml:space="preserve">
<g>
	<g>
		<path fill="#FFFFFF" d="M8.857,0.408L0.472,7.626c-0.63,0.542-0.63,1.424,0,1.968c0.632,0.542,1.655,0.542,2.286,0L10,3.36
			l7.24,6.234c0.632,0.542,1.655,0.542,2.286,0C19.842,9.321,20,8.965,20,8.608c0-0.355-0.158-0.712-0.474-0.982l-8.385-7.218
			C10.512-0.136,9.487-0.136,8.857,0.408z"/>
	</g>
</g>
</svg>
