<?xml version="1.0" encoding="utf-8"?>
<!-- Generator: Adobe Illustrator 16.0.0, SVG Export Plug-In . SVG Version: 6.00 Build 0)  -->
<!DOCTYPE svg PUBLIC "-//W3C//DTD SVG 1.1//EN" "http://www.w3.org/Graphics/SVG/1.1/DTD/svg11.dtd">
<svg version="1.1" id="Layer_1" xmlns="http://www.w3.org/2000/svg" xmlns:xlink="http://www.w3.org/1999/xlink" x="0px" y="0px"
	 width="12px" height="13px" viewBox="0 0 12 13" enable-background="new 0 0 12 13" xml:space="preserve">
<path fill="#FFFFFF" d="M10.242,6.71L7.049,9.704V0.977C7.049,0.457,6.563,0,6.007,0S4.965,0.457,4.965,0.977V9.77L1.771,6.71
	c-0.417-0.391-1.042-0.391-1.458,0c-0.417,0.39-0.417,0.977,0,1.366l5,4.688c0.069,0.065,0.208,0.195,0.348,0.195l0,0
	c0.138,0.065,0.277,0.065,0.346,0.065c0.07,0,0.279,0,0.348-0.065l0,0c0.139-0.064,0.278-0.13,0.347-0.195l5.001-4.688
	c0.417-0.39,0.417-0.977,0-1.366C11.285,6.319,10.66,6.382,10.242,6.71z"/>
</svg>
