<?xml version="1.0" encoding="utf-8"?>
<!-- Generator: Adobe Illustrator 16.0.0, SVG Export Plug-In . SVG Version: 6.00 Build 0)  -->
<!DOCTYPE svg PUBLIC "-//W3C//DTD SVG 1.1//EN" "http://www.w3.org/Graphics/SVG/1.1/DTD/svg11.dtd">
<svg version="1.1" id="Layer_1" xmlns="http://www.w3.org/2000/svg" xmlns:xlink="http://www.w3.org/1999/xlink" x="0px" y="0px"
	 width="100px" height="100px" viewBox="0 0 100 100" enable-background="new 0 0 100 100" xml:space="preserve">
<path fill="#C21631" d="M49.982,99.964c27.604,0,49.983-22.377,49.983-49.982C99.965,22.379,77.586,0,49.982,0S0,22.379,0,49.982
	C0,77.587,22.378,99.964,49.982,99.964"/>
<path fill="#FFFFFF" d="M72.865,35.147c-0.333-0.172-0.781-0.295-1.397-0.295H28.5c-0.617,0-1.068,0.123-1.4,0.295
	c-1.237,0.542-2.107,1.776-2.107,3.211v23.247c0,1.435,0.87,2.666,2.107,3.211c0.333,0.172,0.78,0.296,1.4,0.296h42.968
	c0.616,0,1.064-0.124,1.397-0.296c1.239-0.542,2.109-1.776,2.109-3.211V38.359C74.975,36.924,74.104,35.69,72.865,35.147z
	 M58.653,49.982l13.894-11.356v22.709L58.653,49.982z M70.359,37.28L50.991,53.11c-0.505,0.413-1.51,0.413-2.015,0L29.607,37.28
	H70.359z M27.417,61.338V38.626l13.896,11.359L27.417,61.338z M29.607,62.682l13.623-11.13l4.21,3.438
	c0.689,0.563,1.59,0.875,2.543,0.875s1.854-0.313,2.543-0.875l4.213-3.441l13.62,11.133H29.607z"/>
</svg>
