<?xml version="1.0" encoding="utf-8"?>
<!-- Generator: Adobe Illustrator 16.0.0, SVG Export Plug-In . SVG Version: 6.00 Build 0)  -->
<!DOCTYPE svg PUBLIC "-//W3C//DTD SVG 1.1//EN" "http://www.w3.org/Graphics/SVG/1.1/DTD/svg11.dtd">
<svg version="1.1" id="Layer_1" xmlns="http://www.w3.org/2000/svg" xmlns:xlink="http://www.w3.org/1999/xlink" x="0px" y="0px"
	 width="20px" height="24px" viewBox="0 0 20 24" enable-background="new 0 0 20 24" xml:space="preserve">
<path fill="#FFFFFF" d="M10.029,0C4.491,0,0,4.489,0,10.031c0,4.249,2.658,7.879,6.391,9.338l3.695,4.638l3.742-4.697
	c3.652-1.497,6.231-5.085,6.231-9.278C20.06,4.489,15.57,0,10.029,0z M10.029,13.414c-1.958,0-3.546-1.585-3.546-3.544
	c0-1.958,1.589-3.546,3.546-3.546c1.959,0,3.547,1.587,3.547,3.546C13.576,11.829,11.988,13.414,10.029,13.414z"/>
</svg>
