<?xml version="1.0" encoding="utf-8"?>
<!-- Generator: Adobe Illustrator 16.0.0, SVG Export Plug-In . SVG Version: 6.00 Build 0)  -->
<!DOCTYPE svg PUBLIC "-//W3C//DTD SVG 1.1//EN" "http://www.w3.org/Graphics/SVG/1.1/DTD/svg11.dtd">
<svg version="1.1" id="Layer_1" xmlns="http://www.w3.org/2000/svg" xmlns:xlink="http://www.w3.org/1999/xlink" x="0px" y="0px"
	 width="286px" height="286px" viewBox="0 0 286 286" enable-background="new 0 0 286 286" xml:space="preserve">
<path fill="#FFFFFF" d="M285.5,0.5c0.629,0.628,0.629,1.647,0,2.276L3.27,285.007c-0.628,0.628-1.647,0.628-2.276,0l0,0
	c-0.628-0.629-0.628-1.648,0-2.276L283.224,0.5C283.853-0.128,284.871-0.128,285.5,0.5L285.5,0.5z"/>
</svg>
