<?xml version="1.0" encoding="utf-8"?>
<!-- Generator: Adobe Illustrator 16.0.4, SVG Export Plug-In . SVG Version: 6.00 Build 0)  -->
<!DOCTYPE svg PUBLIC "-//W3C//DTD SVG 1.1//EN" "http://www.w3.org/Graphics/SVG/1.1/DTD/svg11.dtd">
<svg version="1.1" id="Ebene_1" xmlns="http://www.w3.org/2000/svg" xmlns:xlink="http://www.w3.org/1999/xlink" x="0px" y="0px"
	 width="28.347px" height="28.347px" viewBox="-280.492 223.674 28.347 28.347"
	 enable-background="new -280.492 223.674 28.347 28.347" xml:space="preserve">
<g>
	<path fill="#1C4D99" d="M-266.318,223.674c-7.828,0-14.174,6.326-14.174,14.154s6.346,14.192,14.174,14.192
		s14.173-6.364,14.173-14.192C-252.146,230-258.49,223.674-266.318,223.674z M-266.318,249.587c-6.517,0-11.811-5.287-11.811-11.796
		c0-6.508,5.294-11.759,11.811-11.759s11.811,5.251,11.811,11.759C-254.508,244.3-259.802,249.587-266.318,249.587z"/>
	<path fill="#1C4D99" d="M-266.318,227.138c-5.878,0-10.592,4.783-10.592,10.652c0,5.872,4.714,10.617,10.592,10.617
		c5.879,0,10.63-4.745,10.63-10.617C-255.688,231.922-260.439,227.138-266.318,227.138z M-269.862,243.691
		c-1.304,0-2.361-1.059-2.361-2.361c0-1.302,1.058-2.359,2.361-2.359c1.306,0,2.363,1.058,2.363,2.359
		C-267.499,242.633-268.556,243.691-269.862,243.691z M-269.862,236.613c-1.304,0-2.361-1.057-2.361-2.36
		c0-1.303,1.058-2.358,2.361-2.358c1.306,0,2.363,1.056,2.363,2.358C-267.499,235.556-268.556,236.613-269.862,236.613z
		 M-262.776,243.691c-1.304,0-2.361-1.059-2.361-2.361c0-1.302,1.058-2.359,2.361-2.359c1.306,0,2.364,1.058,2.364,2.359
		C-260.412,242.633-261.47,243.691-262.776,243.691z M-262.776,236.613c-1.304,0-2.361-1.057-2.361-2.36
		c0-1.303,1.058-2.358,2.361-2.358c1.306,0,2.364,1.056,2.364,2.358C-260.412,235.556-261.47,236.613-262.776,236.613z"/>
</g>
</svg>
