<?xml version="1.0" encoding="utf-8"?>
<!-- Generator: Adobe Illustrator 16.0.4, SVG Export Plug-In . SVG Version: 6.00 Build 0)  -->
<!DOCTYPE svg PUBLIC "-//W3C//DTD SVG 1.1//EN" "http://www.w3.org/Graphics/SVG/1.1/DTD/svg11.dtd">
<svg version="1.1" id="Layer_1" xmlns="http://www.w3.org/2000/svg" xmlns:xlink="http://www.w3.org/1999/xlink" x="0px" y="0px"
	 width="34.016px" height="28.347px" viewBox="-69.5 101.5 34.016 28.347" enable-background="new -69.5 101.5 34.016 28.347"
	 xml:space="preserve">
<path fill="#1C4D99" d="M-37.61,101.5h-29.764c-1.175,0-2.125,0.793-2.125,1.771v17.718c0,0.979,0.95,1.771,2.125,1.771h10.629
	l4.252,7.087l4.252-7.087h10.631c1.174,0,2.126-0.792,2.126-1.771v-17.718C-35.484,102.293-36.436,101.5-37.61,101.5z
	 M-60.531,113.875c-1.096,0-1.984-0.888-1.984-1.983c0-1.097,0.888-1.984,1.984-1.984c1.097,0,1.985,0.888,1.985,1.984
	C-58.546,112.987-59.434,113.875-60.531,113.875z M-52.594,113.875c-1.096,0-1.984-0.888-1.984-1.983
	c0-1.097,0.888-1.984,1.984-1.984c1.097,0,1.984,0.888,1.984,1.984C-50.609,112.987-51.497,113.875-52.594,113.875z
	 M-44.657,113.875c-1.096,0-1.984-0.888-1.984-1.983c0-1.097,0.888-1.984,1.984-1.984s1.984,0.888,1.984,1.984
	C-42.672,112.987-43.561,113.875-44.657,113.875z"/>
</svg>
