<?xml version="1.0" encoding="utf-8"?>
<!-- Generator: Adobe Illustrator 16.0.4, SVG Export Plug-In . SVG Version: 6.00 Build 0)  -->
<!DOCTYPE svg PUBLIC "-//W3C//DTD SVG 1.1//EN" "http://www.w3.org/Graphics/SVG/1.1/DTD/svg11.dtd">
<svg version="1.1" id="Ebene_1" xmlns="http://www.w3.org/2000/svg" xmlns:xlink="http://www.w3.org/1999/xlink" x="0px" y="0px"
	 width="34.016px" height="28.347px" viewBox="-35.5 135.5 34.016 28.347" enable-background="new -35.5 135.5 34.016 28.347"
	 xml:space="preserve">
<path fill="#1C4D99" d="M-25.454,146.255c0,1.712,1.388,3.101,3.101,3.101s3.101-1.389,3.101-3.101s-1.388-3.101-3.101-3.101
	S-25.454,144.543-25.454,146.255L-25.454,146.255z M-17.731,153.092c0,1.712,1.389,3.101,3.101,3.101
	c1.712,0,3.101-1.389,3.101-3.101c0-1.713-1.389-3.101-3.101-3.101C-16.342,149.991-17.731,151.379-17.731,153.092L-17.731,153.092z
	 M-13.927,143.154h-1.603l-7.527,13.038h1.603L-13.927,143.154L-13.927,143.154z M-19.257,163.404l-1.321-2.288
	c-0.374-0.648-1.187-0.865-1.822-0.499c-0.04,0.023-0.078,0.048-0.115,0.075l-2.176,1.257c-0.14,0.08-0.293,0.118-0.443,0.118
	c-0.328,0-0.614-0.179-0.767-0.443c-0.076-0.131-0.12-0.281-0.12-0.442V158.6c0.002-0.806-0.593-1.4-1.327-1.4l-0.104,0.004H-30
	c-0.162,0-0.313-0.044-0.443-0.119c-0.284-0.164-0.442-0.461-0.443-0.767c0-0.151,0.038-0.304,0.119-0.443l1.271-2.201l0.059-0.093
	c0.368-0.636,0.149-1.448-0.486-1.815l-2.3-1.325c-0.139-0.081-0.249-0.194-0.324-0.324c-0.164-0.284-0.152-0.621,0-0.886
	c0.075-0.131,0.184-0.244,0.324-0.324l2.17-1.253c0.044-0.019,0.088-0.041,0.13-0.065c0.636-0.367,0.854-1.18,0.487-1.815
	l-0.044-0.07l-1.287-2.229c-0.081-0.139-0.119-0.293-0.119-0.443c0-0.327,0.179-0.613,0.443-0.766
	c0.131-0.076,0.282-0.119,0.443-0.119l2.515-0.001c0.046,0.005,0.092,0.008,0.139,0.008c0.733,0,1.329-0.596,1.329-1.329
	l-0.004-0.105l-0.001-2.549c0-0.161,0.044-0.313,0.119-0.443c0.164-0.284,0.461-0.442,0.767-0.442
	c0.15-0.001,0.304,0.037,0.443,0.118l2.199,1.27l0.097,0.062c0.636,0.367,1.448,0.149,1.815-0.486l1.325-2.303
	c0.081-0.139,0.195-0.248,0.325-0.323c0.284-0.164,0.62-0.152,0.885,0c0.131,0.075,0.244,0.184,0.325,0.323l1.24,2.148
	c0.022,0.053,0.047,0.104,0.077,0.155c0.367,0.636,1.179,0.854,1.815,0.486l0.089-0.056l2.212-1.277
	c0.139-0.081,0.292-0.119,0.442-0.119c0.328,0,0.614,0.179,0.768,0.443c0.075,0.131,0.119,0.281,0.119,0.443v2.499
	c-0.007,0.052-0.009,0.104-0.009,0.157c0,0.733,0.594,1.328,1.328,1.328c0.046,0,0.092-0.002,0.138-0.007h2.52
	c0.16,0,0.312,0.044,0.443,0.119c0.283,0.163,0.442,0.461,0.442,0.767c0,0.15-0.038,0.304-0.118,0.443l-1.266,2.191l-0.068,0.106
	c-0.367,0.636-0.149,1.448,0.487,1.815c0.043,0.025,0.089,0.048,0.135,0.067l2.167,1.252c0.141,0.08,0.249,0.194,0.325,0.324
	c0.163,0.283,0.151,0.62,0,0.886c-0.076,0.131-0.185,0.243-0.325,0.324l-2.221,1.282l-0.081,0.044
	c-0.637,0.367-0.854,1.18-0.487,1.815c0.025,0.042,0.051,0.083,0.079,0.12l1.255,2.173c0.08,0.139,0.118,0.293,0.118,0.443
	c0,0.327-0.179,0.613-0.442,0.767c-0.131,0.076-0.282,0.119-0.443,0.119h-2.553L-9.64,157.2c-0.734,0-1.329,0.595-1.329,1.329
	c0,0.045,0.002,0.091,0.007,0.136l0,2.518c0,0.16-0.044,0.312-0.119,0.443c-0.164,0.283-0.462,0.441-0.767,0.442
	c-0.151,0-0.304-0.038-0.443-0.119l-2.188-1.263l-0.108-0.07c-0.636-0.366-1.448-0.149-1.815,0.487
	c-0.023,0.04-0.044,0.08-0.063,0.121l-1.256,2.179c-0.081,0.14-0.194,0.25-0.325,0.324c-0.284,0.164-0.62,0.152-0.886,0
	C-19.063,163.653-19.176,163.544-19.257,163.404L-19.257,163.404z M-23.682,146.255c0-0.733,0.595-1.329,1.329-1.329
	c0.733,0,1.329,0.596,1.329,1.329s-0.596,1.329-1.329,1.329C-23.087,147.584-23.682,146.988-23.682,146.255L-23.682,146.255z
	 M-15.959,153.092c0-0.734,0.595-1.329,1.329-1.329s1.329,0.595,1.329,1.329c0,0.733-0.595,1.329-1.329,1.329
	S-15.959,153.826-15.959,153.092L-15.959,153.092z"/>
</svg>
