<?xml version="1.0" encoding="utf-8"?>
<!-- Generator: Adobe Illustrator 16.0.0, SVG Export Plug-In . SVG Version: 6.00 Build 0)  -->
<!DOCTYPE svg PUBLIC "-//W3C//DTD SVG 1.1//EN" "http://www.w3.org/Graphics/SVG/1.1/DTD/svg11.dtd">
<svg version="1.1" id="Layer_1" xmlns="http://www.w3.org/2000/svg" xmlns:xlink="http://www.w3.org/1999/xlink" x="0px" y="0px"
	 width="34.017px" height="34.016px" viewBox="0 0 34.017 34.016" enable-background="new 0 0 34.017 34.016" xml:space="preserve">
<path fill="#C21631" d="M17.009,34.016c9.394,0,17.008-7.615,17.008-17.008C34.017,7.615,26.402,0,17.009,0
	C7.616,0,0,7.615,0,17.007C0,26.4,7.616,34.016,17.009,34.016"/>
<g>
	<path fill="#FFFFFF" d="M23.655,16.975c0.077-0.115,0.087-0.268,0.013-0.396c-0.104-0.18-0.333-0.241-0.514-0.138l-0.664,0.383
		c-0.18,0.104-0.241,0.334-0.138,0.514c0.07,0.121,0.196,0.188,0.326,0.188c0.064,0,0.129-0.017,0.188-0.05l0.077-0.044l3.294,1.901
		l-9.197,5.31l-9.261-5.346l3.295-1.902l0.103,0.06c0.06,0.034,0.124,0.05,0.188,0.05c0.129,0,0.256-0.067,0.325-0.188
		c0.104-0.18,0.043-0.41-0.137-0.514l-0.669-0.386c-0.18-0.104-0.41-0.042-0.514,0.137c-0.07,0.121-0.064,0.265,0.001,0.377
		l-4.097,2.365l10.765,6.215l10.701-6.179L23.655,16.975z"/>
	<path fill="#FFFFFF" d="M17.178,19.892l-0.138,0.079l-0.138-0.079c-0.18-0.104-0.409-0.042-0.514,0.138
		c-0.104,0.18-0.042,0.41,0.138,0.514l0.325,0.188c0.059,0.034,0.123,0.051,0.188,0.051c0.064,0,0.13-0.017,0.188-0.051l0.326-0.188
		c0.18-0.104,0.241-0.334,0.138-0.514C17.587,19.85,17.356,19.788,17.178,19.892z"/>
	<path fill="#FFFFFF" d="M15.565,19.119l-0.669-0.386c-0.18-0.104-0.409-0.042-0.514,0.138c-0.104,0.18-0.042,0.41,0.138,0.514
		l0.669,0.386c0.059,0.034,0.123,0.051,0.188,0.051c0.13,0,0.256-0.067,0.326-0.188C15.807,19.453,15.745,19.223,15.565,19.119z"/>
	<path fill="#FFFFFF" d="M13.559,17.961l-0.668-0.386c-0.18-0.104-0.41-0.042-0.514,0.138c-0.104,0.18-0.043,0.41,0.138,0.514
		l0.668,0.386c0.06,0.034,0.124,0.05,0.188,0.05c0.13,0,0.256-0.066,0.325-0.188C13.801,18.295,13.739,18.064,13.559,17.961z"/>
	<path fill="#FFFFFF" d="M9.547,15.645l-0.668-0.386c-0.181-0.104-0.41-0.042-0.514,0.138c-0.104,0.18-0.043,0.41,0.137,0.514
		l0.669,0.386c0.06,0.034,0.124,0.05,0.188,0.05c0.13,0,0.257-0.067,0.326-0.188C9.789,15.979,9.728,15.749,9.547,15.645z"/>
	<path fill="#FFFFFF" d="M6.839,14.949l0.326,0.188c0.06,0.034,0.124,0.05,0.188,0.05c0.13,0,0.257-0.067,0.326-0.188
		c0.069-0.12,0.064-0.263,0-0.376c0.064-0.112,0.069-0.255,0-0.376c-0.104-0.18-0.334-0.241-0.514-0.138l-0.326,0.188
		c-0.116,0.067-0.188,0.191-0.188,0.326S6.723,14.882,6.839,14.949z"/>
	<path fill="#FFFFFF" d="M10.674,12.895c0.064,0,0.129-0.017,0.188-0.051l0.665-0.383c0.18-0.104,0.241-0.334,0.138-0.514
		c-0.104-0.18-0.334-0.241-0.514-0.138l-0.664,0.383c-0.181,0.104-0.242,0.334-0.139,0.514
		C10.418,12.827,10.544,12.895,10.674,12.895z"/>
	<path fill="#FFFFFF" d="M14.659,10.594c0.064,0,0.129-0.017,0.188-0.05l0.664-0.383c0.18-0.104,0.241-0.334,0.137-0.514
		c-0.104-0.18-0.333-0.241-0.514-0.138l-0.664,0.383c-0.18,0.104-0.241,0.334-0.137,0.514
		C14.403,10.527,14.529,10.594,14.659,10.594z"/>
	<path fill="#FFFFFF" d="M8.682,14.045c0.063,0,0.129-0.016,0.188-0.05l0.665-0.384c0.18-0.104,0.241-0.333,0.137-0.513
		c-0.104-0.18-0.333-0.242-0.513-0.138l-0.665,0.383c-0.18,0.104-0.241,0.333-0.138,0.514C8.426,13.978,8.552,14.045,8.682,14.045z"
		/>
	<path fill="#FFFFFF" d="M12.667,11.745c0.063,0,0.128-0.017,0.188-0.051l0.664-0.383c0.18-0.104,0.241-0.334,0.138-0.514
		s-0.334-0.241-0.514-0.138l-0.664,0.383c-0.18,0.104-0.242,0.334-0.138,0.514C12.41,11.677,12.537,11.745,12.667,11.745z"/>
	<path fill="#FFFFFF" d="M16.84,9.394l0.138-0.08l0.138,0.08c0.059,0.034,0.124,0.05,0.188,0.05c0.13,0,0.256-0.067,0.326-0.188
		c0.104-0.18,0.042-0.41-0.138-0.514l-0.326-0.188c-0.116-0.067-0.259-0.067-0.376,0l-0.325,0.188
		c-0.18,0.104-0.241,0.333-0.138,0.514C16.43,9.436,16.659,9.498,16.84,9.394z"/>
	<path fill="#FFFFFF" d="M20.458,11.324l0.669,0.386c0.06,0.034,0.124,0.05,0.188,0.05c0.13,0,0.256-0.067,0.326-0.188
		c0.104-0.18,0.042-0.41-0.138-0.514l-0.669-0.386c-0.179-0.104-0.409-0.042-0.514,0.137C20.217,10.99,20.278,11.22,20.458,11.324z"
		/>
	<path fill="#FFFFFF" d="M24.47,13.641l0.669,0.386c0.06,0.035,0.124,0.051,0.188,0.051c0.13,0,0.256-0.067,0.326-0.188
		c0.104-0.18,0.042-0.41-0.138-0.514l-0.669-0.386c-0.18-0.104-0.409-0.042-0.514,0.138C24.229,13.307,24.29,13.537,24.47,13.641z"
		/>
	<path fill="#FFFFFF" d="M22.464,12.482l0.669,0.386c0.06,0.034,0.124,0.051,0.188,0.051c0.13,0,0.256-0.067,0.326-0.188
		c0.104-0.18,0.042-0.41-0.138-0.514l-0.669-0.386c-0.18-0.104-0.409-0.042-0.514,0.137C22.223,12.148,22.284,12.378,22.464,12.482z
		"/>
	<path fill="#FFFFFF" d="M18.452,10.166l0.669,0.386c0.059,0.034,0.124,0.05,0.188,0.05c0.13,0,0.256-0.067,0.326-0.188
		c0.104-0.18,0.042-0.41-0.138-0.514l-0.669-0.386c-0.18-0.104-0.409-0.042-0.514,0.137C18.211,9.832,18.272,10.062,18.452,10.166z"
		/>
	<path fill="#FFFFFF" d="M26.338,15.038c0.07,0.12,0.196,0.188,0.326,0.188c0.063,0,0.129-0.016,0.188-0.05l0.326-0.188
		c0.116-0.067,0.188-0.191,0.188-0.326s-0.071-0.258-0.188-0.326l-0.326-0.188c-0.18-0.104-0.409-0.042-0.514,0.138
		c-0.069,0.121-0.064,0.264,0,0.376C26.273,14.774,26.269,14.917,26.338,15.038z"/>
	<path fill="#FFFFFF" d="M25.147,15.291l-0.664,0.383c-0.18,0.104-0.241,0.334-0.138,0.514c0.069,0.121,0.196,0.188,0.326,0.188
		c0.063,0,0.128-0.016,0.188-0.05l0.664-0.383c0.18-0.104,0.241-0.334,0.138-0.514C25.558,15.248,25.327,15.187,25.147,15.291z"/>
	<path fill="#FFFFFF" d="M21.162,17.591l-0.664,0.383c-0.18,0.104-0.241,0.334-0.138,0.514c0.07,0.121,0.196,0.188,0.326,0.188
		c0.064,0,0.129-0.016,0.188-0.05l0.664-0.384c0.18-0.104,0.241-0.334,0.138-0.514C21.572,17.548,21.342,17.488,21.162,17.591z"/>
	<path fill="#FFFFFF" d="M19.17,18.741l-0.664,0.384c-0.18,0.104-0.241,0.334-0.138,0.514c0.07,0.12,0.196,0.188,0.326,0.188
		c0.063,0,0.128-0.016,0.188-0.051l0.664-0.383c0.18-0.104,0.241-0.334,0.138-0.514C19.579,18.699,19.35,18.638,19.17,18.741z"/>
</g>
</svg>
