<?xml version="1.0" encoding="utf-8"?>
<!-- Generator: Adobe Illustrator 16.0.0, SVG Export Plug-In . SVG Version: 6.00 Build 0)  -->
<!DOCTYPE svg PUBLIC "-//W3C//DTD SVG 1.1//EN" "http://www.w3.org/Graphics/SVG/1.1/DTD/svg11.dtd">
<svg version="1.1" id="Layer_1" xmlns="http://www.w3.org/2000/svg" xmlns:xlink="http://www.w3.org/1999/xlink" x="0px" y="0px"
	 width="59.98px" height="103.271px" viewBox="102.605 8.981 59.98 103.271" enable-background="new 102.605 8.981 59.98 103.271"
	 xml:space="preserve">
<g>
	<g>
		<path fill="#FFFFFF" d="M160.14,54.716l-43.289-43.29c-3.26-3.259-8.543-3.259-11.803,0c-3.257,3.26-3.257,8.542,0,11.802
			l37.389,37.389l-37.389,37.388c-3.257,3.261-3.257,8.545,0,11.804c1.63,1.63,3.768,2.445,5.902,2.445
			c2.136,0,4.272-0.816,5.901-2.445l43.291-43.291C163.4,63.259,163.4,57.974,160.14,54.716z"/>
	</g>
</g>
</svg>
