<?xml version="1.0" encoding="utf-8"?>
<!-- Generator: Adobe Illustrator 16.0.0, SVG Export Plug-In . SVG Version: 6.00 Build 0)  -->
<!DOCTYPE svg PUBLIC "-//W3C//DTD SVG 1.1//EN" "http://www.w3.org/Graphics/SVG/1.1/DTD/svg11.dtd">
<svg version="1.1" id="Layer_1" xmlns="http://www.w3.org/2000/svg" xmlns:xlink="http://www.w3.org/1999/xlink" x="0px" y="0px"
	 width="100px" height="100px" viewBox="0 0 100 100" enable-background="new 0 0 100 100" xml:space="preserve">
<path fill="#C21631" d="M49.878,99.756c27.547,0,49.88-22.329,49.88-49.878C99.758,22.333,77.425,0,49.878,0
	C22.332,0,0,22.333,0,49.878C0,77.427,22.332,99.756,49.878,99.756"/>
<path fill="#FFFFFF" d="M40.318,29.927c-0.688,0-1.246,0.556-1.246,1.25v4.15
	c0,0.69,0.557,1.251,1.246,1.251h0.831c0.69,0,1.249-0.557,1.249-1.251v-4.15c0-0.69-0.556-1.25-1.249-1.25H40.318z M59.022,29.927
	c-0.916,0-1.661,0.745-1.661,1.661v3.329c0,0.917,0.745,1.661,1.661,1.661c0.92,0,1.664-0.745,1.664-1.661v-3.329
	C60.687,30.671,59.939,29.927,59.022,29.927z M32.836,41.981v2.079h33.668v-2.079H32.836z M44.062,33.253v2.077h11.636v-2.077
	H44.062z M62.35,33.253v2.077h6.234v32.422H31.175V35.33h6.232v-2.077h-8.31v34.499c0,2.078,2.078,2.078,2.078,2.078h37.409
	c0,0,2.078,0,2.078-2.078V33.253H62.35z"/>
</svg>
