<?xml version="1.0" encoding="utf-8"?>
<!-- Generator: Adobe Illustrator 16.0.0, SVG Export Plug-In . SVG Version: 6.00 Build 0)  -->
<!DOCTYPE svg PUBLIC "-//W3C//DTD SVG 1.1//EN" "http://www.w3.org/Graphics/SVG/1.1/DTD/svg11.dtd">
<svg version="1.1" id="Layer_1" xmlns="http://www.w3.org/2000/svg" xmlns:xlink="http://www.w3.org/1999/xlink" x="0px" y="0px"
	 width="28.35px" height="28.35px" viewBox="0 0 28.35 28.35" style="enable-background:new 0 0 28.35 28.35;" xml:space="preserve"
	>
<g>
	<path style="fill:#FFFFFF;" d="M14.173,28.347c7.829,0,14.174-6.346,14.174-14.173C28.348,6.346,22.002,0,14.173,0
		C6.346,0,0,6.346,0,14.174C0,22.001,6.346,28.347,14.173,28.347z M14.083,4.44c1.303,0,2.188,0.99,2.188,2.268
		c0,1.354-0.963,2.293-2.188,2.293c-1.2,0-2.165-0.938-2.165-2.293C11.919,5.379,12.884,4.44,14.083,4.44z M10.643,22.813
		c1.538,0,1.668-0.234,1.668-2.163v-5.968c0-1.929-0.104-2.059-1.668-2.059V11.58c1.59-0.104,3.283-0.521,5.082-1.276l0.443,0.234
		v10.137c0,1.902,0.156,2.137,1.537,2.137v1.094h-7.063V22.813z"/>
</g>
</svg>
