<?xml version="1.0" encoding="utf-8"?>
<!-- Generator: Adobe Illustrator 16.0.0, SVG Export Plug-In . SVG Version: 6.00 Build 0)  -->
<!DOCTYPE svg PUBLIC "-//W3C//DTD SVG 1.1//EN" "http://www.w3.org/Graphics/SVG/1.1/DTD/svg11.dtd">
<svg version="1.1" id="Layer_1" xmlns="http://www.w3.org/2000/svg" xmlns:xlink="http://www.w3.org/1999/xlink" x="0px" y="0px"
	 width="100px" height="100px" viewBox="0 0 100 100" enable-background="new 0 0 100 100" xml:space="preserve">
<path fill="#C21631" d="M49.991,99.982c27.608,0,49.991-22.38,49.991-49.991C99.982,22.384,77.6,0,49.991,0
	C22.382,0,0,22.384,0,49.991C0,77.603,22.382,99.982,49.991,99.982"/>
<path fill="#FFFFFF" d="M63.296,38.241c-2.053-5.52-7.438-8.941-13.279-9.079c-5.794,0-10.949,3.56-13.187,8.853
	c-1.87,4.426-1.141,9.125,1.187,13.187c3.651,6.343,7.347,12.729,10.997,19.073c0.41,0.73,1.551,0.73,1.962,0
	c3.65-6.297,7.301-12.593,10.906-18.937C64.255,47.233,64.985,42.759,63.296,38.241z M50.017,48.875
	c-8.258-0.32-8.258-12.458,0-12.778c3.605-0.136,6.252,3.013,6.388,6.39C56.543,46.09,53.396,48.738,50.017,48.875z"/>
</svg>
