<?xml version="1.0" encoding="utf-8"?>
<!-- Generator: Adobe Illustrator 16.0.0, SVG Export Plug-In . SVG Version: 6.00 Build 0)  -->
<!DOCTYPE svg PUBLIC "-//W3C//DTD SVG 1.1//EN" "http://www.w3.org/Graphics/SVG/1.1/DTD/svg11.dtd">
<svg version="1.1" id="Layer_1" xmlns="http://www.w3.org/2000/svg" xmlns:xlink="http://www.w3.org/1999/xlink" x="0px" y="0px"
	 width="28.35px" height="28.35px" viewBox="0 0 28.35 28.35" style="enable-background:new 0 0 28.35 28.35;" xml:space="preserve"
	>
<path style="fill:#FFFFFF;" d="M28.348,21.484c0,0.738-0.58,1.342-1.289,1.342s-1.289-0.604-1.289-1.342
	c0-2.082-1.545-3.826-3.543-3.963c1.418,1.814,2.256,5.654,2.256,8.141l0,0v1.34c0,0.74-0.58,1.344-1.289,1.344
	s-1.289-0.604-1.289-1.344v-1.34c0-2.285-0.902-5.855-2.383-7.334l-2.256-1.543c-0.967-0.471-1.996-0.674-3.092-0.674
	c-1.095,0-2.19,0.27-3.092,0.674l-2.19,1.543c-1.546,1.479-2.448,5.049-2.448,7.334v1.34c0,0.74-0.58,1.344-1.288,1.344
	c-0.709,0-1.289-0.604-1.289-1.344v-1.34l0,0c0-2.553,0.838-6.326,2.255-8.141c-1.997,0.137-3.543,1.881-3.543,3.963
	c0,0.738-0.58,1.342-1.288,1.342C0.58,22.826,0,22.223,0,21.484c0-2.35,1.16-4.365,2.835-5.574c-0.967-1.008-1.546-2.35-1.546-3.826
	c0-2.953,2.318-5.371,5.153-5.371c0.064,0,0.064,0,0.129,0C7.151,2.887,10.372,0,14.173,0s7.022,2.887,7.602,6.713
	c0.064,0,0.064,0,0.129,0c2.836,0,5.154,2.418,5.154,5.371c0,1.477-0.58,2.887-1.547,3.826
	C27.252,17.119,28.348,19.135,28.348,21.484z M6.571,9.4c-0.064,0-0.064,0-0.129,0c-1.417,0-2.577,1.209-2.577,2.684
	c0,1.477,1.16,2.686,2.577,2.686c0.902,0,1.675-0.471,2.126-1.209C7.538,12.488,6.829,11.012,6.571,9.4z M14.173,2.688
	c-2.834,0-5.154,2.414-5.154,5.367c0,2.957,2.319,5.373,5.154,5.373s5.155-2.416,5.155-5.373
	C19.328,5.102,17.008,2.688,14.173,2.688z M21.904,9.4c-0.064,0-0.064,0-0.129,0c-0.258,1.611-0.967,3.02-1.996,4.16
	c0.451,0.738,1.223,1.209,2.125,1.209c1.418,0,2.578-1.209,2.578-2.686C24.482,10.609,23.322,9.4,21.904,9.4z"/>
</svg>
