<?xml version="1.0" encoding="utf-8"?>
<!-- Generator: Adobe Illustrator 16.0.0, SVG Export Plug-In . SVG Version: 6.00 Build 0)  -->
<!DOCTYPE svg PUBLIC "-//W3C//DTD SVG 1.1//EN" "http://www.w3.org/Graphics/SVG/1.1/DTD/svg11.dtd">
<svg version="1.1" id="Layer_1" xmlns="http://www.w3.org/2000/svg" xmlns:xlink="http://www.w3.org/1999/xlink" x="0px" y="0px"
	 width="34.017px" height="34.016px" viewBox="0 0 34.017 34.016" enable-background="new 0 0 34.017 34.016" xml:space="preserve">
<path fill="#C21631" d="M17.009,34.016c9.394,0,17.008-7.615,17.008-17.008C34.017,7.615,26.402,0,17.009,0
	C7.616,0,0,7.615,0,17.007C0,26.4,7.616,34.016,17.009,34.016"/>
<path fill="#FFFFFF" d="M21.348,10.708c-2.938-2.938-7.701-2.938-10.64,0c-2.938,2.938-2.938,7.701,0,10.64
	c2.608,2.608,6.654,2.899,9.586,0.877l2.886,2.887c0.534,0.533,1.398,0.533,1.933,0c0.533-0.533,0.533-1.398,0-1.932l-2.888-2.887
	C24.247,17.361,23.956,13.315,21.348,10.708z M19.494,19.493c-1.915,1.915-5.018,1.915-6.933,0c-1.914-1.914-1.914-5.018,0-6.932
	s5.018-1.914,6.933,0C21.408,14.476,21.408,17.58,19.494,19.493z"/>
</svg>
