<?xml version="1.0" encoding="utf-8"?>
<!-- Generator: Adobe Illustrator 16.0.0, SVG Export Plug-In . SVG Version: 6.00 Build 0)  -->
<!DOCTYPE svg PUBLIC "-//W3C//DTD SVG 1.1//EN" "http://www.w3.org/Graphics/SVG/1.1/DTD/svg11.dtd">
<svg version="1.1" id="Layer_1" xmlns="http://www.w3.org/2000/svg" xmlns:xlink="http://www.w3.org/1999/xlink" x="0px" y="0px"
	 width="14px" height="18px" viewBox="0 0 14 18" enable-background="new 0 0 14 18" xml:space="preserve">
<path fill="#FFFFFF" d="M11.083,12.375c-0.61,0-1.18,0.183-1.649,0.493L5.645,9.995C5.766,9.686,5.834,9.353,5.834,9
	c0-0.361-0.073-0.706-0.2-1.022l3.731-2.891c0.48,0.338,1.075,0.538,1.718,0.538c1.611,0,2.917-1.26,2.917-2.813
	C14,1.259,12.694,0,11.083,0C9.471,0,8.167,1.259,8.167,2.813c0,0.32,0.055,0.628,0.157,0.915L4.535,6.662
	C4.074,6.363,3.517,6.188,2.917,6.188C1.305,6.188,0,7.446,0,9c0,1.553,1.305,2.813,2.917,2.813c0.608,0,1.178-0.181,1.647-0.49
	l3.789,2.872c-0.12,0.31-0.187,0.645-0.187,0.993C8.167,16.74,9.471,18,11.083,18C12.694,18,14,16.74,14,15.188
	C14,13.634,12.694,12.375,11.083,12.375z"/>
</svg>
